4.1 Selecting multiple elements | Advanced R Book Club
…
vals[c(3, 15)]
#> [1] "3,1" "5,3"

4.1.4 Data frames and tibbles

Data frames act like lists and matrices
- single index -> list
- two indices -> matrix

library(palmerpenguins)

# single index
penguins[1:2]
#> # A tibble: 344 × 2
#>    species island   
#>    <fct>   <fct>    
#>  1 Adelie  Torgersen
#>  2 Adelie  Torgersen
#>  3 Adelie  Torgersen
#>  4 Adelie  Torgersen
#>  5 Adelie  Torgersen
#>  6 Adelie  Torgersen
#>  7 Adelie  Torgersen
#>  8 Adelie  Torgersen
#>  9 Adelie  Torgersen
#> 10 Adelie  Torgersen
#> # … with 334 more rows

penguins[c("species","island")]
#> # A tibble: 344 × 2
#>    species island   
#>    <fct>   <fct>    
#>  1 Adelie  Torgersen
#>  2 Adelie  Torgersen
#>  3 Adelie  Torgersen
#>  4 Adelie  Torgersen
#>  5 Adelie  Torgersen
#>  6 Adelie  Torgersen
#>  7 Adelie  Torgersen
#>  8 Adelie  Torgersen
#>  9 Adelie  Torgersen
#> 10 Adelie  Torgersen
#> # … with 334 more rows
…
